211252 748672
371700 742594
131257 606604
353506 636931
533736 762658
137324 478705
461219 922605
238017 709375
541378 563013
301437 675661
438766 927596
155232 311910
350259 773314
170967 677278
142647 916048
163278 414703
133202 408098
438499 985762
124327 850218
395274 887656
795872 873629
48008 517462
852219 970170
101567 710292
503823 808619
155606 628677
584913 927571
421036 832525
580966 938450
648530 732721
171087 591787
258689 873660
18902 582628
666413 925497
457449 707334
793707 795854
500767 824628
24970 724502
69028 426335
456787 476778
27385 199604
429316 582931
326597 669229
436035 863614
682285 689730
101103 752330
126190 622910
19575 374059
305539 872040
467722 539549
267583 290717
380205 903175
505045 560927
220007 306575
9970 363088
42822 994683
306510 998096
48673 429521
49470 199912
167715 624303
236698 969085
28744 563489
390946 820787
564823 677608
403313 895784
113498 129397
657910 948976
167353 214131
135074 746112
526848 826063
155048 730563
47045 676192
140959 378641
604230 847966
149285 506993
75094 449872
375647 668309
139595 595884
25994 863672
124715 540842
58359 861018
504630 932872
137843 381958
463019 843296
365636 617368
5052 954658
35751 432074
470957 486680
220263 592440
260325 780053
288836 652390
499081 816955
7085 71462
353352 568249
430652 670574
158873 738895
325238 951079
35971 173212
535519 908276
166564 755319
325457 925467
670279 823288
613233 734398
173769 515115
245121 926322
193731 484585
54024 928450
158673 916943
257344 526064
213313 397025
171302 749073
202722 480937
294237 862479
503738 581013
76837 429403
666417 738829
272622 723818
414384 531323
214342 504457
851485 935226
495806 861517
139600 484499
261212 327497
296506 719790
472643 846895
444312 799777
384904 780312
391020 523052
171184 276743
112611 434021
205210 926226
141955 767937
386726 498658
34585 619195
876237 878830
563497 662364
368254 400802
737003 891642
691278 847977
287642 989230
567873 939534
238942 479245
469462 835816
81464 731999
154444 871571
219302 483019
608810 865476
205681 924688
187785 941654
464120 559389
190119 652427
212728 593469
713117 823737
148435 160609
749365 850992
640987 674876
272934 517821
754260 882486
50184 692547
58502 524277
50545 122693
719113 853611
107052 695863
107256 299245
287645 509073
504723 527380
311961 629235
126151 144885
282926 569196
34206 702055
193624 933365
667248 866269
468619 640270
742547 996357
237532 610518
275154 747663
497489 772223
35770 288559
399174 965830
430558 539960
537913 753390
271697 943900
837559 902230
416044 429947
642082 726965
123532 764228
637465 808950
103701 146025
272302 892022
703559 840064
144780 199077
148243 390113
218511 888806
312450 588872
166132 330224
861499 947363
465515 634326
352673 821214
541062 937388
281824 529167
400869 506199
116018 266251
480561 849458
75968 525305
388 990167
443383 731070
594458 978455
373252 835614
495366 546959
638399 969394
593337 879337
124536 776971
322511 385480
538834 543648
787439 810356
359473 559893
353685 791936
45788 657111
184097 816770
716605 914725
110366 248046
215622 603454
408660 587533
92546 114299
8628 915141
46194 995871
11164 585560
213172 368439
247798 602212
