211252 748672 509
371700 742594 509
131257 606604 470
353506 636931 509
533736 762658 509
137324 478705 449
461219 922605 525
238017 709375 509
541378 563013 452
301437 675661 509
438766 927596 525
155232 311910 443
350259 773314 509
170967 677278 509
142647 916048 525
163278 414703 449
133202 408098 443
438499 985762 525
124327 850218 525
395274 887656 525
795872 873629 525
48008 517462 470
852219 970170 507
101567 710292 509
503823 808619 509
155606 628677 509
584913 927571 525
421036 832525 509
580966 938450 525
648530 732721 504
171087 591787 470
258689 873660 525
18902 582628 470
666413 925497 525
457449 707334 509
793707 795854 331
500767 824628 509
24970 724502 509
69028 426335 449
456787 476778 444
27385 199604 383
429316 582931 470
326597 669229 509
436035 863614 525
682285 689730 398
101103 752330 509
126190 622910 470
19575 374059 443
305539 872040 525
467722 539549 470
267583 290717 407
380205 903175 525
505045 560927 470
220007 306575 443
9970 363088 443
42822 994683 525
306510 998096 525
48673 429521 449
49470 199912 383
167715 624303 470
236698 969085 525
28744 563489 470
390946 820787 509
564823 677608 509
403313 895784 525
113498 129397 349
657910 948976 525
167353 214131 373
135074 746112 509
526848 826063 509
155048 730563 509
47045 676192 509
140959 378641 443
604230 847966 525
149285 506993 449
75094 449872 449
375647 668309 509
139595 595884 470
25994 863672 525
124715 540842 470
58359 861018 525
504630 932872 525
137843 381958 443
463019 843296 525
365636 617368 470
5052 954658 525
35751 432074 449
470957 486680 413
220263 592440 470
260325 780053 509
288836 652390 509
499081 816955 509
7085 71462 340
353352 568249 470
430652 670574 509
158873 738895 509
325238 951079 525
35971 173212 383
535519 908276 525
166564 755319 509
325457 925467 525
670279 823288 504
613233 734398 509
173769 515115 470
245121 926322 525
193731 484585 449
54024 928450 525
158673 916943 525
257344 526064 470
213313 397025 443
171302 749073 509
202722 480937 449
294237 862479 525
503738 581013 470
76837 429403 449
666417 738829 504
272622 723818 509
414384 531323 470
214342 504457 449
851485 935226 476
495806 861517 525
139600 484499 449
261212 327497 407
296506 719790 509
472643 846895 525
444312 799777 509
384904 780312 509
391020 523052 470
171184 276743 443
112611 434021 449
205210 926226 525
141955 767937 509
386726 498658 449
34585 619195 470
876237 878830 401
563497 662364 509
368254 400802 436
737003 891642 525
691278 847977 525
287642 989230 525
567873 939534 525
238942 479245 449
469462 835816 509
81464 731999 509
154444 871571 525
219302 483019 449
608810 865476 525
205681 924688 525
187785 941654 525
464120 559389 470
190119 652427 509
212728 593469 470
713117 823737 468
148435 160609 383
749365 850992 525
640987 674876 442
272934 517821 470
754260 882486 525
50184 692547 509
58502 524277 470
50545 122693 354
719113 853611 525
107052 695863 509
107256 299245 443
287645 509073 449
504723 527380 470
311961 629235 509
126151 144885 375
282926 569196 470
34206 702055 509
193624 933365 525
667248 866269 525
468619 640270 509
742547 996357 525
237532 610518 470
275154 747663 509
497489 772223 509
35770 288559 443
399174 965830 525
430558 539960 470
537913 753390 509
271697 943900 525
837559 902230 525
416044 429947 418
642082 726965 504
123532 764228 509
637465 808950 504
103701 146025 375
272302 892022 525
703559 840064 525
144780 199077 383
148243 390113 443
218511 888806 525
312450 588872 470
166132 330224 443
861499 947363 507
465515 634326 509
352673 821214 509
541062 937388 525
281824 529167 470
400869 506199 449
116018 266251 443
480561 849458 525
75968 525305 470
388 990167 525
443383 731070 509
594458 978455 525
373252 835614 509
495366 546959 470
638399 969394 525
593337 879337 525
124536 776971 509
322511 385480 441
538834 543648 408
787439 810356 468
359473 559893 470
353685 791936 509
45788 657111 509
184097 816770 509
716605 914725 525
110366 248046 443
215622 603454 470
408660 587533 470
92546 114299 354
8628 915141 525
46194 995871 525
11164 585560 470
213172 368439 443
247798 602212 470
