251980 613760
86026 109258
101617 69609
529201 234344
180485 873137
392993 462224
523134 397181
179705 282796
6305 713326
916176 627941
99032 375604
71983 50950
158748 993093
181006 128149
298684 968713
602384 158144
410549 317126
891069 215668
884822 269464
638728 337493
113327 778918
866120 644389
828429 429520
931040 188235
672405 899030
718318 925696
973559 498216
375211 73734
959399 689268
619733 31629
954894 39373
358937 371772
162396 544127
617150 595332
751935 473275
652656 575016
461727 226091
767080 46200
109247 663184
770399 757916
518984 562178
159077 543772
800438 93059
618959 255132
387253 599346
375346 927140
393934 821773
818873 520571
516710 324636
919363 329798
207289 687403
295353 785601
335481 567686
791899 197325
430581 838191
878532 425020
957703 407420
342200 328661
305567 888568
308919 816149
91691 792146
832824 572979
188710 753730
590016 696598
972397 7760
207349 774193
912286 504971
901928 68199
714543 780543
343643 66201
508573 923190
758614 941770
327118 700871
319468 191165
577955 233793
875361 316942
965696 361142
327025 984871
659414 497598
39635 315195
964281 851322
678009 771967
249744 535696
240326 463706
312974 838886
469763 857338
899634 209207
11333 146707
597648 360716
257487 30060
454420 236423
551338 472235
820906 714980
997602 395821
135236 56848
455185 168328
708996 124606
62668 259911
219542 178635
824644 497583
946755 210186
288130 490149
493421 326093
574433 592041
698123 507015
970477 910392
279529 583994
531580 588406
905417 574379
378891 80006
45759 878058
458930 308105
2932 783378
844863 386870
78835 901005
270693 902567
925143 473923
40579 5717
929311 255535
922555 682200
77571 815819
450232 80093
883541 91979
83096 584685
211811 383615
762845 174646
608347 170054
996455 361502
482841 415604
114690 893598
937085 623615
344432 143543
896328 354834
44095 525134
444943 276691
335516 532185
890592 11630
838319 275383
420741 547567
83116 439855
918109 101369
306704 515406
597192 592009
947995 330900
973097 664448
548878 590688
346870 568094
33089 586204
736035 518556
792651 49053
657509 650601
365507 423015
14511 151286
538149 617387
5527 353912
152213 3009
279035 557177
941004 720137
890645 931338
595611 715068
392405 664091
663582 286612
500603 733558
429671 237768
180512 701474
323621 599874
842179 889202
102249 620850
593014 282880
780473 418418
815345 731288
400015 394766
455326 287592
171570 75559
955247 137579
894731 131131
544884 685425
526493 281966
884576 613032
770919 589791
966415 342968
832615 179927
558753 465666
937103 753277
368236 979036
931614 165649
53634 407294
489947 745512
727086 692711
734900 110700
765754 470531
279664 237251
794105 6178
78606 487585
757200 344284
741555 779384
410723 797594
364315 810232
417735 738450
40720 272554
429580 839794
790996 658372
934052 881874
819110 73011
284582 307466
694523 994745
535338 4530
947999 680425
250908 424048
245786 143126
118355 517439
185474 453547
794988 723048
478553 978384
176234 245905
742474 770840
801936 592302
639607 259231
158071 812163
99731 881883
708776 845621
691088 411583
502390 300918
263697 31988
361182 151066
471379 338305
872413 311684
31657 935638
289170 49274
493779 222303
720260 771425
193620 977830
644350 466898
719491 347925
717851 296816
394915 657016
796156 148845
156695 546250
751328 214954
92168 140172
68184 615666
359081 309708
781790 10762
392551 169623
303268 595941
539914 929290
411776 205854
252895 67564
762734 990447
848946 627988
356699 846922
332447 229383
248608 604896
130676 913731
67106 600700
135421 387802
420402 656208
76882 705730
202604 664697
573400 642076
671826 334927
370743 99332
570956 41875
495896 984178
638816 196309
527150 64439
556237 722070
850776 245973
194598 87585
534439 809222
522044 738229
192346 825631
403813 731695
358331 599547
321411 173999
586024 240663
757501 562679
946497 902799
556112 158998
539629 203556
575147 754253
789975 129049
989017 154246
237461 830394
299430 765788
193786 444832
355161 765964
282909 428116
439881 601869
