777545 183587 509
215656 804359 509
971453 898618 507
467204 370079 449
80554 285816 443
784355 783876 331
761952 776766 468
562526 603800 434
940465 1635 525
692508 149909 509
445771 923654 525
723743 399274 509
358179 680555 509
758172 651517 504
859072 665084 525
207145 438357 449
306326 21676 443
525384 750843 509
488069 23636 449
55946 92739 351
711824 868648 525
754988 197272 509
761174 106368 509
671177 592189 509
731678 666189 504
350584 729360 509
118217 251662 443
146395 660248 509
330894 333511 353
156325 783323 509
436326 748511 509
241341 15337 443
861931 325173 525
643794 97812 509
468715 756029 509
958689 914022 507
501679 922651 525
618501 854442 525
973979 114738 525
863309 20974 525
86357 865754 525
378314 692026 509
21642 795411 509
102663 427734 449
423325 797315 509
225024 61883 386
290618 551280 470
832093 494289 509
52691 541003 470
46898 926607 525
828369 440180 509
698709 654971 442
198007 502771 449
653029 864361 525
996457 440142 525
328847 720528 509
501684 776469 509
100031 506791 449
796900 186249 509
253528 521650 470
978351 602380 525
411410 505515 444
761986 717280 424
400938 730912 509
491634 896333 525
98653 838512 525
905011 262838 525
29875 161878 383
68899 161199 383
496159 195524 449
255644 333353 407
668520 193230 509
71384 409350 443
11405 404944 443
759720 940636 525
393801 198362 443
365146 658074 509
274798 317536 389
913894 416368 525
641531 812792 504
754350 392248 509
142623 897357 525
62125 159854 383
36726 388945 443
163522 430208 449
196924 867788 525
649215 257601 509
567491 997224 525
972559 226180 525
499099 609769 470
613386 411160 470
282406 440472 449
155599 282498 443
198720 715042 509
487999 271421 449
392469 713994 509
455838 801016 509
367298 328805 441
746599 347386 509
252130 35290 443
361763 342485 441
109699 571411 470
595235 571991 434
111092 245332 443
46437 332484 443
644038 306471 509
388171 871118 525
356752 505707 449
350672 683324 509
531890 27257 470
58185 533698 470
142799 523857 470
580413 172898 470
867842 184834 525
621134 530099 452
938399 69475 525
659794 520547 509
100560 724087 509
173655 873269 525
294447 802614 509
318172 638693 509
418316 11776 449
488754 967912 525
805857 707560 468
982249 348672 525
545434 618607 452
19993 32098 308
574747 760603 509
267354 312824 407
133515 677784 509
296930 143873 443
426531 9387 449
381817 425279 449
60063 86579 351
550997 142325 470
370434 557664 470
907428 375431 525
734190 94093 509
416143 523095 470
823418 328166 509
729272 553913 509
166910 63458 383
566305 592562 434
370855 823067 509
508122 447771 444
37340 344412 443
741432 611828 509
737061 85060 509
148324 411337 449
526107 86829 470
730753 820438 468
806620 306956 509
806903 768917 468
550108 492494 470
200507 794121 509
454026 497084 444
262748 132669 443
141743 407933 443
102785 180456 383
944792 612270 525
822439 267220 509
105921 32483 351
931214 928712 370
694105 346950 509
164785 673619 509
5439 973621 525
25958 638406 509
582195 513640 452
851801 981304 507
151969 172945 383
164597 539385 470
171341 322483 443
656373 298528 509
61895 459390 449
973726 388175 525
923261 131028 525
733832 135396 509
988454 559663 525
444442 602684 470
678371 173265 509
606187 209674 470
510209 844940 525
349740 115939 443
326513 937776 525
56501 525399 470
322739 816602 509
905591 624400 525
966645 862399 507
103515 192272 383
68102 634448 509
465057 656669 509
578781 910945 525
739760 278943 509
700595 696018 367
655735 472945 509
542052 963847 525
388994 752438 509
718097 951995 525
625092 820780 509
768202 698245 504
271291 364851 441
263413 416997 449
457283 687713 509
994489 595035 525
991442 792639 525
610482 753445 509
418798 707609 509
127992 974684 525
850096 804395 525
934168 78564 525
456158 994802 525
426583 885677 525
725309 715867 411
294003 268027 407
706963 449016 509
517278 690231 509
467445 298142 449
158542 565455 470
819465 970330 525
426385 996989 525
970255 437244 525
901972 494359 525
591821 229198 470
530331 789386 509
840503 240818 525
237956 259910 368
386170 87866 443
589093 305150 470
756979 905440 525
611716 670824 509
767907 57047 509
392635 71402 443
690655 9009 509
269354 871163 525
455560 333373 449
917560 183749 525
28168 105982 351
719356 584123 509
49110 619516 470
562034 891117 525
461427 495047 426
904513 171267 525
756229 290818 509
940584 21600 525
582437 208085 470
208719 286874 443
292234 539716 470
35636 117966 354
49461 956629 525
719035 178099 509
