9721 937636 525
555161 763055 509
452392 20782 449
517367 200432 470
336520 583215 470
942092 863895 507
673723 940283 525
964922 652189 525
404236 659188 509
384672 261971 441
200247 210741 373
735542 622686 509
602175 649165 509
740717 979390 525
812837 455222 509
583200 727709 509
763032 80028 509
51380 303571 443
273840 58632 443
602492 918483 525
900116 722621 525
689094 119703 509
522083 487084 470
241419 355784 441
813506 329238 509
535316 945710 525
57482 670884 509
819737 84978 509
44139 927604 525
626651 615171 509
773548 359201 509
138279 878764 525
847064 233849 525
884623 255726 525
524075 740920 509
18946 389321 443
721639 472155 509
170399 514106 470
289382 994467 525
673188 411729 509
618666 210811 470
148762 548240 470
395466 354112 436
111004 119094 349
946348 988364 458
975105 280886 525
270399 578 443
472725 697221 509
22069 935439 525
859583 252506 525
692952 304790 509
984112 401700 525
917878 549951 525
582299 195921 470
489540 240502 449
251289 911413 525
22328 59281 340
305985 8541 443
458714 732653 509
213981 737858 509
498756 485296 426
989062 130280 525
833774 263324 509
280545 807861 509
905496 703720 525
271088 221821 443
756544 472913 509
433611 228084 449
676817 849203 525
835074 294839 509
637892 866322 525
670356 754015 504
880822 81528 525
763123 938238 525
620817 648307 509
466035 666835 509
75187 304424 443
26586 627230 509
540237 70812 470
647199 436275 509
636232 403366 509
337649 238402 407
403301 174867 443
173476 172523 347
20181 740397 509
283400 609391 470
900681 241467 525
65900 449211 449
915184 902668 476
817041 310771 509
315410 185884 443
259110 342256 407
540887 844870 525
659553 403282 509
11971 162129 383
630357 716480 504
830688 629775 504
316019 626926 509
59224 150061 375
750608 490141 509
618652 338430 470
111596 715797 509
123896 534010 470
307693 123506 443
702548 899254 525
515783 760764 509
494346 912611 525
634846 98951 509
223951 696750 509
445371 879337 525
728798 782398 468
934392 29236 525
4543 282811 443
457484 8539 449
981270 235274 525
933361 541553 525
870772 564252 525
299140 634635 509
32028 2965 308
904543 842666 445
219391 726476 509
673092 503176 509
654552 990243 525
772894 90130 509
631621 229312 509
123050 723999 509
866598 281180 525
800222 248963 509
106362 734933 509
151960 326648 443
50429 381214 443
504799 114107 449
280329 602874 470
755716 388733 509
721781 595440 509
401840 420257 449
498351 223517 449
368157 16742 443
604051 407640 470
261398 47452 443
135551 926593 525
767327 908205 525
170725 74835 383
566156 360056 470
84274 401022 443
970847 709364 525
255936 240855 363
482879 835843 509
870650 504426 525
677009 961537 525
756578 963608 525
753455 155821 509
703008 595465 509
163701 926166 525
884685 169985 525
635896 968468 525
302649 867890 525
526769 757767 509
230024 905127 525
278389 103599 443
651746 87409 509
11661 571096 470
755944 392655 509
573150 176814 470
656455 310673 509
923275 263435 525
133018 390529 443
288797 961136 525
104390 332611 443
41889 27720 324
232241 401465 441
712194 703143 504
783902 79092 509
788285 265253 509
320443 340074 384
379378 28440 443
804975 811333 406
430804 202331 449
311757 566959 470
650665 380104 509
208398 561702 470
737124 185557 509
404986 536027 470
423595 466383 444
261307 497272 449
820092 141807 509
109244 774925 509
163678 38756 383
611381 896549 525
69981 432977 449
438005 5755 449
841469 929371 476
961916 496205 525
982137 461869 525
80910 872049 525
631237 787444 504
406225 402354 405
762526 449579 509
586920 678308 509
388081 818317 509
390580 993361 525
572099 504903 470
52206 282639 443
308125 451714 449
863882 174169 525
203737 843024 525
250692 349725 441
814308 997368 525
821109 932654 525
750352 274744 509
468679 430973 444
531721 356495 470
702442 20933 509
948666 455622 525
965372 133349 525
288703 338873 384
541601 673471 509
465591 548125 470
767943 418696 509
418680 715127 509
444870 664509 509
915202 401139 525
672288 123032 509
676829 674505 385
503418 698088 509
92524 567016 470
535148 640666 509
377211 215162 443
139170 140903 344
903104 744585 525
520470 163983 470
412241 570376 470
242445 150208 443
477906 480768 413
292963 358067 441
488766 987807 525
351146 79294 443
625768 502733 470
701732 18256 509
417711 879281 525
808402 510487 509
298274 584474 470
269437 160181 443
656248 180760 509
111225 928453 525
431234 26426 449
724634 665804 504
303488 752489 509
41361 899855 525
471587 663213 509
606601 782463 509
645685 658487 429
393215 125397 443
802095 91872 509
533790 845594 525
761145 871533 525
897824 85080 525
952216 499626 525
913869 936599 476
402385 642339 509
938976 109016 525
201564 782135 509
17783 301484 443
708246 776819 468
172571 816168 509
886508 193863 525
128444 307154 443
514396 294683 470
977391 935640 507
526873 993518 525
479431 340629 449
243951 862447 525
53317 552370 470
982298 969983 458
168386 114600 383
606829 458213 470
455915 248646 449
513037 369404 470
301023 770654 509
787954 92958 509
566221 344615 470
449464 723811 509
596521 460940 470
482402 848064 525
729156 645530 504
93857 401603 443
158219 452900 449
566301 102387 470
775385 893178 525
424812 5033 449
204818 432985 449
405883 358224 436
990418 186328 525
556007 484895 470
471810 599132 470
201569 167303 365
296954 821225 509
383711 577891 470
959010 391962 525
396203 268937 441
216399 894537 525
682637 444271 509
748829 750921 393
910936 131941 525
364366 823488 509
768198 140657 509
292802 475959 449
281179 695252 509
142094 492921 449
767036 937987 525
631346 712672 504
806623 462614 509
860612 436945 525
743920 827481 468
772115 842725 525
412731 988113 525
282692 67387 443
975730 483810 525
83248 806402 509
102214 108629 354
98129 196967 383
715578 657550 504
578256 404601 470
268342 525582 470
553456 540168 452
749569 166492 509
668781 139063 509
217449 718008 509
79110 738713 509
993583 516292 525
292912 509402 449
725678 542786 509
578805 969965 525
831019 752796 468
292014 601475 470
363558 13462 443
861812 681781 525
778622 561526 509
780892 439187 509
142351 895171 525
38990 467574 449
901754 287379 525
644871 293609 509
335431 133923 443
868842 765974 525
757686 130303 509
115438 1042 354
39057 473957 449
336509 719599 509
489698 684849 509
412097 679485 509
38578 754401 509
739549 361508 509
351480 138067 443
652853 901882 525
894478 606249 525
245882 421714 449
649284 678874 442
204918 450518 449
16590 424970 449
487149 812362 509
363088 418754 449
117789 418630 449
544797 228040 470
919939 43349 525
258305 817818 509
707797 40927 509
140042 103943 354
73791 803674 509
947564 555925 525
270239 117777 443
809489 891529 525
226226 223552 368
258495 385824 441
18284 400766 443
812233 347576 509
2392 920167 525
49370 357774 443
23294 250132 443
640951 198329 509
974513 329841 525
45348 393132 443
422739 465139 444
803015 179424 509
382802 657984 509
579932 417470 470
389947 501245 449
548764 750230 509
627417 635703 416
881556 433789 525
571687 867248 525
77614 413683 449
283370 877884 525
312572 614270 470
945686 305367 525
68238 922012 525
406499 749317 509
258236 905137 525
94104 106378 354
301358 475299 449
209216 104801 383
991544 561655 525
501579 110054 449
372496 5966 443
163234 119642 383
687560 603262 509
699617 602168 509
429644 464072 444
9768 56139 340
763587 656704 504
805426 783967 468
142626 499620 449
539925 699080 509
73746 9623 340
822201 802183 450
372544 143730 443
323120 918509 525
372736 279955 441
506526 324157 449
266 584936 470
188476 329309 443
102356 435470 449
654025 547366 509
575245 45655 470
635194 634232 310
873208 767680 525
189837 633716 509
866537 639720 525
904102 825788 525
767690 626358 504
924687 204377 525
789699 22733 509
28154 857174 525
254187 186711 443
333393 292437 384
