92374 74199
8290 65752
4447 22967
11237 28050
81124 19402
11376 71764
58126 23479
52253 2169
80200 19283
73469 46335
2142 32007
66067 21442
3672 23767
17451 26349
87144 90301
48139 32731
96213 82818
4592 53180
91593 6512
87828 31456
56541 46207
96984 48325
12865 72504
21711 15287
82150 49083
597 46104
95752 2750
48086 32318
13634 84445
80302 92139
45895 4815
57979 35514
74366 78835
7122 5745
27580 8367
16760 88563
11010 20366
67282 15111
99790 53442
72800 3539
20039 73265
10178 53503
85059 98960
19181 85953
40967 11736
82504 69216
62972 96926
28638 40949
99183 65893
87770 31895
36559 91427
42260 63864
33357 37588
42501 91975
86936 64750
142 81468
47259 64529
35162 55289
80301 52170
81799 17146
20535 34744
91077 67272
33033 68099
52322 47302
5763 93817
79948 5846
91598 45148
4252 90451
42594 97838
1175 30773
42411 29445
71826 69720
26343 66534
79721 66750
56303 92805
96990 26844
21061 51095
25124 64874
83079 19242
21755 40056
96135 46698
97105 20454
29139 76142
42399 42274
82876 93181
31217 42987
25351 97037
11510 74884
83612 99464
96381 39863
26420 27937
34802 87851
70923 58509
47139 16209
20110 29630
36745 89574
60314 95365
27944 43840
63456 25186
46786 58129
75306 48537
51981 56185
15838 50094
11699 38074
87832 32844
46822 32979
75587 86287
54840 66557
712 77782
34301 45937
10385 69561
62426 55244
7481 62734
39712 64434
87002 45992
9506 34239
68955 33706
38852 72589
73861 82887
75597 83190
82260 69725
54000 25591
888 61999
28175 83578
35850 76963
86009 3194
6581 64122
34661 69827
21450 91757
24986 84967
30549 55723
88728 96498
46397 79402
8926 60526
73560 24119
18009 16816
70641 43367
88637 17652
20872 48869
45621 23413
30152 29882
98957 20219
83582 47728
13082 19706
44021 69115
53165 59040
61666 14498
42701 48879
57927 44698
37432 56132
5578 91272
95792 24739
86198 87740
99942 74311
70343 19211
81414 68738
2542 98640
81037 31913
67665 85528
94860 13925
54205 13066
57624 89748
63803 31680
21756 95733
80737 61790
69700 52768
89734 60842
32218 27436
44438 38944
13178 36660
17225 3243
28501 95260
11363 36168
45810 25700
76889 58836
67883 73701
93078 25309
2000 41116
48347 52241
93818 76625
44743 78844
8194 52069
95780 61587
34621 66866
46085 67325
84061 94725
93232 87280
34356 48397
18723 99005
64855 78595
83433 82553
13565 43632
41156 76548
73917 45403
81190 21603
46507 29382
11124 83289
29995 74404
43138 15138
88832 24856
91211 43345
2322 26636
45749 77917
51606 7492
89413 55556
54273 53245
41036 58731
12091 8812
93488 94983
72652 46371
83747 34558
16556 12384
91176 53141
84513 7189
84150 49656
46531 23733
56766 32637
73922 52533
64710 98846
55271 48846
65575 78264
57401 90603
16521 49282
32916 37667
95829 58746
57644 92619
79449 72611
77310 175
23008 99583
53752 3652
52725 48881
21175 25811
5651 36670
95436 32289
13715 64073
12974 13720
18929 1357
68096 37270
88428 36665
22595 31526
14299 3801
46840 61224
14486 34464
78205 76184
5711 65896
76180 80635
39639 76791
86867 30993
76477 60799
10925 45614
3584 35026
45293 34755
49367 31577
68961 32245
427 35038
11565 42087
49178 47524
3650 67322
6797 14215
94761 64147
88396 90551
84978 7273
17236 46072
74641 2791
37560 19148
27970 95476
83665 79225
46207 77652
70084 53419
55918 35264
4860 92632
1350 99260
91789 7948
61097 14280
24923 93240
89888 81627
19771 4260
50743 98911
49719 36778
85516 51184
20234 11930
61413 65959
31548 37331
59274 81599
6170 11093
8344 70645
15285 15534
42986 2307
90214 56475
97388 75339
15472 2149
25900 16678
34105 37932
84137 62906
78233 87495
39725 41855
44195 91816
3498 20512
87963 11567
90523 33439