702899 97883 509
489815 187730 449
93478 345233 443
142797 211054 383
842415 339396 525
30572 961503 525
298179 50953 443
140582 990964 525
898058 498865 525
237710 76575 443
879798 489949 525
794750 262903 509
516814 911904 525
573976 189810 470
671906 113536 509
850724 757321 525
340962 920684 525
37555 605268 470
974046 964896 458
691234 221613 509
638179 424714 509
733597 583872 509
830094 138300 509
21926 421090 449
637106 436297 509
962341 625591 525
338839 771753 509
121235 496356 449
637703 944817 525
211669 878810 525
527341 600454 452
169767 41656 383
231125 102458 443
392304 404043 405
599760 886278 525
244496 499894 449
251661 913483 525
461643 799620 509
678082 977389 525
263950 747836 509
704363 750698 504
862135 510583 525
284423 922817 525
25192 785271 509
327871 308546 384
56831 197448 383
25559 967458 525
942655 603766 525
497370 765039 509
490782 507316 426
508286 86001 449
262622 706294 509
679984 56039 509
572688 665888 509
915031 776147 525
568595 825879 509
601614 642386 509
757948 358802 509
738798 697482 504
666816 964431 525
577043 705649 509
584737 883016 525
689992 321218 509
529211 558247 452
255310 102957 443
112199 483531 449
283978 141553 443
250337 585697 470
379552 611371 470
53661 672450 509
977500 804021 525
251033 602439 470
675914 375002 509
78324 30653 351
642702 541666 509
907120 14793 525
627090 654058 416
560665 669435 509
175304 122679 383
327051 854566 525
161498 917034 525
4789 343576 443
653053 260144 509
567439 140763 470
774986 28690 509
233086 951647 525
920258 542804 525
638579 21499 509
590563 278266 470
389164 576613 470
525700 142999 470
365755 381322 423
69214 436444 449
686148 131926 509
313623 271351 389
711741 925577 525
153265 229921 386
851656 543051 525
668212 610827 509
645447 325850 509
797983 960528 525
386804 690248 509
272154 536004 470
448863 185792 449
929786 151162 525
285934 274164 389
482404 816168 509
733011 833950 468
254032 164415 443
623433 112440 470
392908 512285 470
293573 750339 509
927010 422461 525
561878 79515 470
581404 682242 509
451477 108692 449
759030 235356 509
722797 982924 525
527363 417274 470
200522 884421 525
177938 37956 383
220812 492779 449
783530 452506 509
544509 64293 470
103832 260689 443
38491 872300 525
250503 317835 407
534379 745212 509
232725 944222 525
175505 997589 525
886921 3352 525
661298 673754 442
615955 739264 509
623227 186660 470
477962 928158 525
958042 983435 458
20835 179644 383
113933 323178 443
101038 687014 509
162060 680222 509
747326 636568 504
956202 759182 525
561609 591853 434
794832 313131 509
604948 821742 509
871381 144580 525
680190 252065 509
125797 428503 449
700983 312794 509
986177 64677 525
730563 638542 504
846578 225757 525
63292 848664 525
684665 388829 509
766063 878714 525
726613 485575 509
482040 200972 449
913933 624533 525
8866 150424 375
709998 640753 504
316802 532862 470
821488 150471 509
515811 571840 452
78155 40993 351
463416 634791 509
499762 501486 364
422501 939886 525
809119 753343 468
194233 477704 449
689897 751848 504
812585 753268 468
629669 785658 504
671494 660988 442
453526 719875 509
967559 922444 507
298976 584324 470
492512 273612 449
432962 46534 449
74411 920282 525
89704 58010 351
115294 292613 443
932561 858446 476
691129 985146 525
140626 461925 449
370205 396333 436
117865 324260 443
197624 503552 449
40094 88009 351
678934 524148 509
22211 482937 449
656383 670383 442
819113 990113 525
195882 271613 443
92175 210105 383
866541 768734 525
596365 672836 509
500248 747251 509
618665 560674 447
864521 179899 525
455490 725556 509
602257 294665 470
240310 19505 443
966938 396773 525
831295 612009 509
533638 304725 470
446853 366586 449
657728 292460 509
403311 475830 449
817825 146907 509
904210 866283 445
805484 518225 509
624175 903284 525
266415 658377 509
607932 854438 525
898054 913170 476
617362 147358 470
865006 380541 525
97319 766440 509
868484 893433 445
926428 104767 525
40859 539033 470
95741 733435 509
980106 347157 525
38341 801989 509
643145 496569 509
388958 178025 443
898095 854845 445
673057 334782 509
394310 218661 443
652054 399890 509
249852 36213 443
152123 345096 443
281604 107748 443
86663 363476 443
830511 789376 468
611607 214138 470
440831 768554 509
552813 610659 434
692138 754691 504
286578 923591 525
591065 101818 470
502736 857764 525
451253 161605 449
296259 400852 441
920788 804880 525
185707 608598 470
66264 740825 509
916997 303343 525
