12345 67890 340
23456 81234 351
34567 92001 351
45678 123901 354
56789 134010 354
12346 68901 340
78901 124632 354
89012 235743 443
90123 346854 443
23411 78965 351
34522 81235 351
45633 92346 351
56744 103457 351
67855 214568 383
78966 325679 443
89077 436790 449
90188 547901 470
123109 678653 509
234220 789764 509
345331 890875 525
124642 235753 443
235753 346864 441
346864 457975 449
457975 568086 470
568086 679197 509
679197 790308 504
790308 901419 525
124543 235654 443
235654 346765 441
346765 457876 449
457876 568987 470
568987 679098 509
679098 790209 504
124689 235800 443
235800 346911 441
346911 457022 449
214574 325685 443
325685 436796 449
436796 547907 470
547907 658018 509
658018 769129 504
124700 235811 443
235811 346922 441
346922 457033 449
457033 568144 470
568144 679255 509
214585 325696 443
325696 436807 449
436807 547918 470
547918 658029 509
658029 769140 504
769140 879251 525
879251 990362 507
214596 325707 443
235708 346819 441
346819 457930 449
457930 568041 470
568041 679152 509
679152 790263 504
214607 325718 443
235719 346830 441
346830 457941 449
457941 568052 470
568052 679163 509
679163 790274 504
790274 901385 525
124720 235731 443
235731 346842 441
346842 457953 449
214737 325748 443
235748 346859 441
346859 457970 449
457970 568081 470
568081 679192 509
679192 790303 504
790303 901414 525
901414 912525 476
214748 325759 443
235759 346870 441
346870 457981 449
457981 568092 470
568092 679203 509
679203 790314 504
790314 901425 525
124780 235791 443
235791 346902 441
346902 457913 449
214789 325800 443
235800 346911 441
346911 457022 449
457022 568133 470
568133 679244 509
679244 790355 504
790355 901466 525
124790 235802 443
235802 346913 441
346913 457024 449
457024 568135 470
568135 679246 509
679246 790357 504
790357 901468 525
214798 325809 443
235809 346920 441
346920 457031 449
457031 568142 470
568142 679253 509
679253 790364 504
790364 901475 525
124810 235821 443
235821 346932 441
346932 457043 449
457043 568154 470
568154 679265 509
679265 790376 504
790376 901487 525
214809 325820 443
235820 346931 441
346931 457042 449
457042 568153 470
568153 679264 509
679264 790375 504
790375 901486 525
124820 235832 443
235832 346943 441
346943 457054 449
457054 568165 470
568165 679276 509
679276 790387 504
790387 901498 525
124830 235843 443
235843 346954 441
346954 457065 449
457065 568176 470
568176 679287 509
679287 790398 504
790398 901509 525
124840 235854 443
235854 346965 441
346965 457076 449
457076 568187 470
568187 679298 509
679298 790409 504
790409 901520 525
124850 235865 443
235865 346976 441
346976 457087 449
457087 568198 470
568198 679309 509
679309 790420 504
790420 901531 525
124860 235876 443
235876 346987 441
346987 457098 449
457098 568209 470
568209 679320 509
679320 790431 504
790431 901542 525
124870 235887 443
235887 346998 441
346998 457109 449
457109 568220 470
568220 679331 509
679331 790442 504
790442 901553 525
124880 235898 443
235898 347009 441
347009 457120 449
457120 568231 470
568231 679342 509
679342 790453 504
790453 901564 525
124890 235909 443
235909 347020 441
347020 457131 449
457131 568242 470
568242 679353 509
679353 790464 504
790464 901575 525
124900 235910 443
235910 347021 441
347021 457132 449
457132 568243 470
568243 679354 509
679354 790465 504
790465 901576 525
124910 235921 443
235921 347032 441
347032 457143 449
457143 568254 470
568254 679365 509
679365 790476 504
790476 901587 525
124920 235932 443
235932 347043 441
347043 457154 449
457154 568265 470
568265 679376 509
679376 790487 504
790487 901598 525
124930 235943 443
